[gd_scene load_steps=2 format=2]

[ext_resource path="res://assets/hunterwinscreen.png" type="Texture" id=1]

[node name="HunterWin" type="Node2D"]

[node name="Sprite" type="Sprite" parent="."]
position = Vector2( 512, 300 )
texture = ExtResource( 1 )
